{
  "images" : [
    {
      "idiom" : "iphone",
      "filename" : "iPhone7750x1334 2.png",
      "scale" : "1x"
    },
    {
      "idiom" : "iphone",
      "filename" : "iPhoneSE640x1136.png",
      "subtype" : "retina4",
      "scale" : "1x"
    },
    {
      "idiom" : "iphone",
      "filename" : "iPhone7750x1334 2-1.png",
      "scale" : "2x"
    },
    {
      "idiom" : "iphone",
      "filename" : "iPhoneSE640x1136-1.png",
      "subtype" : "retina4",
      "scale" : "2x"
    },
    {
      "idiom" : "iphone",
      "filename" : "iPhone8750x1334.png",
      "subtype" : "667h",
      "scale" : "2x"
    },
    {
      "idiom" : "iphone",
      "filename" : "iPhoneXr828x1792.png",
      "subtype" : "1792h",
      "scale" : "2x"
    },
    {
      "idiom" : "iphone",
      "filename" : "iPhoneXr828x1792 copy.png",
      "scale" : "3x"
    },
    {
      "idiom" : "iphone",
      "filename" : "iPhoneSE640x1136-2.png",
      "subtype" : "retina4",
      "scale" : "3x"
    },
    {
      "idiom" : "iphone",
      "filename" : "iPhone8Plus1242x2208.png",
      "subtype" : "736h",
      "scale" : "3x"
    },
    {
      "idiom" : "iphone",
      "filename" : "iPhoneXs1125x2436.png",
      "subtype" : "2436h",
      "scale" : "3x"
    },
    {
      "idiom" : "iphone",
      "filename" : "iPhoneXsMax1242x2688.png",
      "subtype" : "2688h",
      "scale" : "3x"
    },
    {
      "idiom" : "ipad",
      "filename" : "12'9IpadPro2048x2732 copy.png",
      "scale" : "1x"
    },
    {
      "idiom" : "ipad",
      "filename" : "12'9IpadPro2048x2732 copy1.png",
      "scale" : "2x"
    }
  ],
  "info" : {
    "version" : 1,
    "author" : "xcode"
  }
}